\relax 
\providecommand\hyper@newdestlabel[2]{}
\catcode `:\active 
\catcode `;\active 
\catcode `!\active 
\catcode `?\active 
\providecommand\HyperFirstAtBeginDocument{\AtBeginDocument}
\HyperFirstAtBeginDocument{\ifx\hyper@anchor\@undefined
\global\let\oldcontentsline\contentsline
\gdef\contentsline#1#2#3#4{\oldcontentsline{#1}{#2}{#3}}
\global\let\oldnewlabel\newlabel
\gdef\newlabel#1#2{\newlabelxx{#1}#2}
\gdef\newlabelxx#1#2#3#4#5#6{\oldnewlabel{#1}{{#2}{#3}}}
\AtEndDocument{\ifx\hyper@anchor\@undefined
\let\contentsline\oldcontentsline
\let\newlabel\oldnewlabel
\fi}
\fi}
\global\let\hyper@last\relax 
\gdef\HyperFirstAtBeginDocument#1{#1}
\providecommand\HyField@AuxAddToFields[1]{}
\providecommand\HyField@AuxAddToCoFields[2]{}
\@writefile{toc}{\enlargethispage {\baselineskip }}
\select@language{french}
\@writefile{toc}{\select@language{french}}
\@writefile{lof}{\select@language{french}}
\@writefile{lot}{\select@language{french}}
\@writefile{toc}{\contentsline {chapter}{\numberline {1}R\IeC {\'e}sum\IeC {\'e} - Introduction}{3}{chapter.1}}
\@writefile{lof}{\addvspace {10\p@ }}
\@writefile{lot}{\addvspace {10\p@ }}
\@writefile{toc}{\contentsline {paragraph}{R\IeC {\'e}sum\IeC {\'e}}{3}{chapter.1}}
\@writefile{toc}{\contentsline {paragraph}{Introduction}{3}{chapter.1}}
\@writefile{toc}{\contentsline {paragraph}{Suite du travail}{3}{chapter.1}}
\citation{yen-entropy-seuil}
\citation{yen-entropy-seuil}
\citation{yen-entropy-seuil}
\citation{yen-entropy-seuil}
\citation{pun-entropy-seuil}
\citation{pun-entropy-seuil}
\citation{pun-entropy-seuil}
\citation{pun-entropy-seuil}
\citation{yen-entropy-seuil}
\citation{yen-entropy-seuil}
\citation{yen-entropy-seuil}
\citation{yen-entropy-seuil}
\citation{pun-entropy-seuil}
\citation{pun-entropy-seuil}
\citation{pun-entropy-seuil}
\citation{pun-entropy-seuil}
\citation{cooccurrence-seuil}
\citation{fractal-dim-texture}
\citation{fractalDimentionExample}
\citation{fractalDimentionExample}
\@writefile{toc}{\contentsline {chapter}{\numberline {2}Outils math\IeC {\'e}matiques}{4}{chapter.2}}
\@writefile{lof}{\addvspace {10\p@ }}
\@writefile{lot}{\addvspace {10\p@ }}
\newlabel{outils}{{2}{4}{Outils mathématiques}{chapter.2}{}}
\@writefile{toc}{\contentsline {section}{\numberline {I}Statistiques}{4}{section.2.1}}
\@writefile{toc}{\contentsline {paragraph}{Entropie}{4}{section.2.1}}
\newlabel{entropie}{{I}{4}{Entropie}{section.2.1}{}}
\@writefile{toc}{\contentsline {paragraph}{Matrice de cooccurrence}{4}{section.2.1}}
\newlabel{cooccurrence}{{I}{4}{Matrice de cooccurrence}{section.2.1}{}}
\@writefile{toc}{\contentsline {paragraph}{Histogramme 2D}{4}{section.2.1}}
\newlabel{histogramme2D}{{I}{4}{Histogramme 2D}{section.2.1}{}}
\@writefile{toc}{\contentsline {section}{\numberline {II}Structures}{4}{section.2.2}}
\@writefile{toc}{\contentsline {paragraph}{Analyse Fractale}{4}{section.2.2}}
\newlabel{fractal}{{II}{4}{Analyse Fractale}{section.2.2}{}}
\@writefile{lof}{\contentsline {figure}{\numberline {2.1}{\ignorespaces Calcule de la dimension fractale. L'objet g\IeC {\'e}om\IeC {\'e}trique est un cercle et la fractale est le p\IeC {\'e}rim\IeC {\`e}tre de la grande Bretagne \cite  {fractalDimentionExample}.\relax }}{4}{figure.2.1}}
\citation{waveletteExemple}
\citation{waveletteExemple}
\citation{gaborExemple}
\citation{gaborExemple}
\citation{fuzzyC-survey-seuil}
\citation{fuzzyC-seuil}
\citation{FisherLinear_IMG}
\citation{FisherLinear_IMG}
\@writefile{toc}{\contentsline {section}{\numberline {III}Spectres}{5}{section.2.3}}
\@writefile{toc}{\contentsline {paragraph}{D\IeC {\'e}composition de Fourrier}{5}{section.2.3}}
\newlabel{fourrier}{{III}{5}{Décomposition de Fourrier}{section.2.3}{}}
\@writefile{toc}{\contentsline {paragraph}{D\IeC {\'e}composition en wavelette}{5}{section.2.3}}
\newlabel{wavelette}{{III}{5}{Décomposition en wavelette}{section.2.3}{}}
\@writefile{lof}{\contentsline {figure}{\numberline {2.2}{\ignorespaces Exemple de wavelette m\IeC {\`e}re (wavelette de Morlet) \cite  {waveletteExemple}.\relax }}{5}{figure.2.2}}
\@writefile{toc}{\contentsline {paragraph}{Filtre de Gabor}{5}{figure.2.2}}
\newlabel{gabor}{{III}{5}{Filtre de Gabor}{figure.2.2}{}}
\@writefile{lof}{\contentsline {figure}{\numberline {2.3}{\ignorespaces Exemple de filtre de Gabor \cite  {gaborExemple}.\relax }}{5}{figure.2.3}}
\@writefile{toc}{\contentsline {section}{\numberline {IV}Classifications}{5}{section.2.4}}
\newlabel{classifieurs}{{IV}{5}{Classifications}{section.2.4}{}}
\@writefile{toc}{\contentsline {paragraph}{Algorithme des k-moyennes}{5}{section.2.4}}
\newlabel{kMoyennes}{{IV}{5}{Algorithme des k-moyennes}{section.2.4}{}}
\@writefile{toc}{\contentsline {paragraph}{Discriminant lin\IeC {\'e}aire de Fisher}{5}{section.2.4}}
\newlabel{fischer}{{IV}{5}{Discriminant linéaire de Fisher}{section.2.4}{}}
\@writefile{lof}{\contentsline {figure}{\numberline {2.4}{\ignorespaces Repr\IeC {\'e}sentation graphique de classification gr\IeC {\^a}ce au discriminant lin\IeC {\'e}aire de Fisher \cite  {FisherLinear_IMG}.\relax }}{5}{figure.2.4}}
\citation{SMVTheory_IMG}
\citation{SMVTheory_IMG}
\citation{reseauNeurone_IMG}
\citation{reseauNeurone_IMG}
\citation{neural2}
\citation{hopfieldTheorie}
\citation{kohonenTheory}
\citation{KohonenTherory_IMG}
\citation{KohonenTherory_IMG}
\@writefile{toc}{\contentsline {paragraph}{Arbres de d\IeC {\'e}cision}{6}{figure.2.4}}
\newlabel{arbre}{{IV}{6}{Arbres de décision}{figure.2.4}{}}
\@writefile{toc}{\contentsline {paragraph}{Support vector machine}{6}{figure.2.4}}
\newlabel{SVM}{{IV}{6}{Support vector machine}{figure.2.4}{}}
\@writefile{lof}{\contentsline {figure}{\numberline {2.5}{\ignorespaces Repr\IeC {\'e}sentation graphique de classification gr\IeC {\^a}ce aux classifieurs SVM \cite  {SMVTheory_IMG}.\relax }}{6}{figure.2.5}}
\@writefile{toc}{\contentsline {paragraph}{R\IeC {\'e}seaux de neurones artificels}{6}{figure.2.5}}
\newlabel{neural}{{IV}{6}{Réseaux de neurones artificels}{figure.2.5}{}}
\@writefile{lof}{\contentsline {figure}{\numberline {2.6}{\ignorespaces R\IeC {\'e}seau de neurones simple \cite  {reseauNeurone_IMG}.\relax }}{6}{figure.2.6}}
\@writefile{toc}{\contentsline {paragraph}{Perceptron}{6}{figure.2.6}}
\newlabel{perceptron}{{IV}{6}{Perceptron}{figure.2.6}{}}
\@writefile{toc}{\contentsline {paragraph}{R\IeC {\'e}seau de Hopfield}{6}{figure.2.6}}
\newlabel{hopfield}{{IV}{6}{Réseau de Hopfield}{figure.2.6}{}}
\@writefile{toc}{\contentsline {paragraph}{R\IeC {\'e}seau de Kohonen}{6}{figure.2.6}}
\newlabel{kohonen}{{IV}{6}{Réseau de Kohonen}{figure.2.6}{}}
\@writefile{lof}{\contentsline {figure}{\numberline {2.7}{\ignorespaces Exemple d'apprentissage gr\IeC {\^a}ce aux r\IeC {\'e}seaux de Kohonen \cite  {KohonenTherory_IMG}.\relax }}{6}{figure.2.7}}
\citation{metaoptimisation-seuil}
\@writefile{toc}{\contentsline {section}{\numberline {V}M\IeC {\'e}taheuristiques et optimisations}{7}{section.2.5}}
\@writefile{toc}{\contentsline {paragraph}{Artificial Bee Colony Algorithm}{7}{section.2.5}}
\newlabel{ABC}{{V}{7}{Artificial Bee Colony Algorithm}{section.2.5}{}}
\@writefile{toc}{\contentsline {paragraph}{Relaxation stochastique}{7}{section.2.5}}
\newlabel{relaxationStoch}{{V}{7}{Relaxation stochastique}{section.2.5}{}}
\citation{survey-seuil-tot}
\citation{seuil-surf}
\citation{bimodalHisto_IMG}
\citation{bimodalHisto_IMG}
\citation{cocavite-seuil}
\citation{courbature-seuil}
\citation{valle-seuil}
\citation{contours-seuil}
\citation{survey-seuil-tot}
\citation{survey-seuil-tot}
\citation{survey-seuil-Masson}
\@writefile{toc}{\contentsline {chapter}{\numberline {3}Seuillage}{8}{chapter.3}}
\@writefile{lof}{\addvspace {10\p@ }}
\@writefile{lot}{\addvspace {10\p@ }}
\newlabel{seuillage}{{3}{8}{Seuillage}{chapter.3}{}}
\@writefile{toc}{\contentsline {section}{\numberline {I}Histogrammes}{8}{section.3.1}}
\@writefile{lof}{\contentsline {figure}{\numberline {3.1}{\ignorespaces Histogramme bimodale \cite  {bimodalHisto_IMG}\relax }}{8}{figure.3.1}}
\@writefile{toc}{\contentsline {paragraph}{\IeC {\'E}tude de concavit\IeC {\'e}}{8}{figure.3.1}}
\@writefile{toc}{\contentsline {paragraph}{Analyse de vall\IeC {\'e}e}{8}{figure.3.1}}
\@writefile{toc}{\contentsline {paragraph}{Analyse des contours}{8}{figure.3.1}}
\@writefile{toc}{\contentsline {paragraph}{Contrastes uniformes}{8}{figure.3.1}}
\@writefile{toc}{\contentsline {paragraph}{Optimisations}{8}{figure.3.1}}
\citation{survey-seuil-tot}
\citation{iterative-clustering-seuil}
\citation{otsu-kittler-seuil}
\citation{otsu-seuil}
\citation{otsu-modif-seuil}
\@writefile{toc}{\contentsline {subparagraph}{Optimisation par les contours}{9}{figure.3.1}}
\@writefile{lof}{\contentsline {figure}{\numberline {3.2}{\ignorespaces Image pr\IeC {\'e}c\IeC {\'e}dent le calcule du grandient $G$.\relax }}{9}{figure.3.2}}
\@writefile{lof}{\contentsline {figure}{\numberline {3.3}{\ignorespaces Image gradient $G$.\relax }}{9}{figure.3.3}}
\@writefile{toc}{\contentsline {subparagraph}{Optimisation par l'homog\IeC {\'e}n\IeC {\'e}it\IeC {\'e}}{9}{figure.3.3}}
\@writefile{toc}{\contentsline {section}{\numberline {II}Clustering}{9}{section.3.2}}
\@writefile{toc}{\contentsline {paragraph}{Seuillage it\IeC {\'e}ratif}{9}{section.3.2}}
\@writefile{toc}{\contentsline {paragraph}{M\IeC {\'e}thode d'Otsu}{9}{equation.3.2.2}}
\citation{survey-seuil-tot}
\citation{survey-seuil-tot}
\citation{moment-seuil}
\citation{survey-seuil-tot}
\citation{survey-seuil-tot}
\citation{survey-seuil-tot}
\@writefile{toc}{\contentsline {paragraph}{M\IeC {\'e}thode d'Otsu modifi\IeC {\'e}e}{10}{equation.3.2.2}}
\@writefile{toc}{\contentsline {paragraph}{Cross-entropie}{10}{equation.3.2.2}}
\@writefile{toc}{\contentsline {paragraph}{Entropie floue}{10}{equation.3.2.2}}
\@writefile{toc}{\contentsline {section}{\numberline {III}Similarit\IeC {\'e}s}{10}{section.3.3}}
\@writefile{toc}{\contentsline {paragraph}{Pr\IeC {\'e}servation du moment}{10}{section.3.3}}
\@writefile{toc}{\contentsline {paragraph}{Pr\IeC {\'e}servation des contours}{10}{section.3.3}}
\@writefile{toc}{\contentsline {paragraph}{Similarit\IeC {\'e}s floues}{10}{section.3.3}}
\citation{similarite-incertitude-seuil}
\citation{compactness-seuil}
\citation{ptile-seuil}
\citation{cooccurrence-seuil}
\citation{cooccurrence-seuil}
\citation{cooccurrence-seuil}
\citation{cooccurrence-seuil}
\@writefile{toc}{\contentsline {paragraph}{\IeC {\'E}tat topologique stable}{11}{section.3.3}}
\@writefile{toc}{\contentsline {paragraph}{Similarit\IeC {\'e}s d'incertitude}{11}{section.3.3}}
\@writefile{toc}{\contentsline {paragraph}{Compacit\IeC {\'e} floue}{11}{section.3.3}}
\@writefile{toc}{\contentsline {paragraph}{Probabilit\IeC {\'e}s Spatiales et Corr\IeC {\'e}lation Inter-Pixels}{11}{section.3.3}}
\@writefile{toc}{\contentsline {paragraph}{Analyse p-tile}{11}{section.3.3}}
\@writefile{toc}{\contentsline {paragraph}{Cooccurrence - Entropie}{11}{section.3.3}}
\@writefile{lof}{\contentsline {figure}{\numberline {3.4}{\ignorespaces Matrice de cooccurrence \cite  {cooccurrence-seuil}.\relax }}{11}{figure.3.4}}
\newlabel{fig:a}{{3.4}{11}{Matrice de cooccurrence \cite {cooccurrence-seuil}.\relax }{figure.3.4}{}}
\@writefile{toc}{\contentsline {paragraph}{Cooccurrence - Contraste}{11}{figure.3.4}}
\citation{survey-seuil-tot}
\citation{fisher-histo-seuil}
\citation{entropy-histo-seuil}
\citation{entropy2-histo-seuil}
\citation{entropy-flou1-seuil}
\citation{entropy-flou2-seuil}
\citation{bloc-fixed-seuil}
\citation{bloc-fixed-seuil}
\citation{bloc-fixed-seuil}
\citation{bloc-fixed-seuil}
\citation{randomSet-seuil}
\@writefile{toc}{\contentsline {paragraph}{Cooccurrence - Histogramme}{12}{figure.3.4}}
\@writefile{toc}{\contentsline {paragraph}{Histogramme 2D - Fisher Linear Discreminant}{12}{figure.3.4}}
\@writefile{toc}{\contentsline {paragraph}{Histogramme 2D - Entropie}{12}{figure.3.4}}
\@writefile{toc}{\contentsline {paragraph}{Histogramme 2D - Entropie floue}{12}{figure.3.4}}
\@writefile{toc}{\contentsline {paragraph}{Blocs fixes}{12}{figure.3.4}}
\newlabel{blocsFixes}{{III}{12}{Blocs fixes}{figure.3.4}{}}
\@writefile{lof}{\contentsline {figure}{\numberline {3.5}{\ignorespaces Exemple de classes possibles pour les blocs de taille $[2 \times 2]$ \cite  {bloc-fixed-seuil}.\relax }}{12}{figure.3.5}}
\@writefile{toc}{\contentsline {paragraph}{Blocs mouvants}{12}{figure.3.5}}
\citation{survey-seuil-tot}
\citation{surface-seuil}
\citation{surface-seuil}
\citation{surface-seuil}
\citation{surface-seuil}
\citation{surface-seuil}
\citation{surface-seuil}
\citation{surface-seuil}
\citation{gris-local-seuil}
\citation{histo-gauss-seuil}
\citation{survey-seuil-tot}
\@writefile{toc}{\contentsline {paragraph}{Ensembles al\IeC {\'e}atoires}{13}{figure.3.5}}
\@writefile{toc}{\contentsline {section}{\numberline {IV}Variation du seuil local}{13}{section.3.4}}
\@writefile{toc}{\contentsline {paragraph}{Contraste locale}{13}{section.3.4}}
\@writefile{toc}{\contentsline {paragraph}{Surface de fitting}{13}{section.3.4}}
\@writefile{lof}{\contentsline {figure}{\numberline {3.6}{\ignorespaces Image originale \cite  {surface-seuil}.\relax }}{13}{figure.3.6}}
\@writefile{lof}{\contentsline {figure}{\numberline {3.7}{\ignorespaces Seuillage du gradient $G$ \cite  {surface-seuil}.\relax }}{13}{figure.3.7}}
\@writefile{lof}{\contentsline {figure}{\numberline {3.8}{\ignorespaces Seuillage de l'image originale gr\IeC {\^a}ce \IeC {\`a} la surface calcul\IeC {\'e}e \cite  {surface-seuil}.\relax }}{13}{figure.3.8}}
\@writefile{toc}{\contentsline {paragraph}{Niveau de gris locale}{13}{figure.3.8}}
\@writefile{toc}{\contentsline {paragraph}{Approximation Gaussienne}{13}{figure.3.8}}
\citation{survey-seuil-tot}
\citation{relaxation-seuil}
\citation{relaxation2-seuil}
\citation{lee}
\citation{lee}
\citation{lee}
\citation{lee}
\citation{lee}
\citation{seuillageExemple1}
\citation{seuillageExemple1}
\citation{seuillageExemple1}
\@writefile{lof}{\contentsline {figure}{\numberline {3.9}{\ignorespaces Approximation bi-Gaussienne.\relax }}{14}{figure.3.9}}
\@writefile{toc}{\contentsline {paragraph}{Entropie Locale}{14}{figure.3.9}}
\@writefile{toc}{\contentsline {paragraph}{M\IeC {\'e}thode de la relaxation}{14}{figure.3.9}}
\@writefile{toc}{\contentsline {paragraph}{Algorithme de Lee}{14}{figure.3.9}}
\@writefile{lof}{\contentsline {figure}{\numberline {3.10}{\ignorespaces Exemple d'image n\IeC {\'e}cessitant l'utilisation de l'algorithme de Lee pour la segmentation \cite  {lee}.\relax }}{14}{figure.3.10}}
\@writefile{lof}{\contentsline {figure}{\numberline {3.11}{\ignorespaces Sch\IeC {\'e}ma repr\IeC {\'e}sentant les diff\IeC {\'e}rents chemins trouv\IeC {\'e}s par l'algorithme de Lee \cite  {lee}.\relax }}{14}{figure.3.11}}
\@writefile{toc}{\contentsline {section}{\numberline {V}Exemples d'applications : Segmentation Osseuse}{14}{section.3.5}}
\newlabel{osExemples}{{V}{14}{Exemples d'applications : Segmentation Osseuse}{section.3.5}{}}
\citation{seuillageExemple1}
\citation{seuillageExemple1}
\citation{seuillageExemple2}
\citation{seuillageExemple2}
\citation{seuillageExemple2}
\@writefile{lof}{\contentsline {figure}{\numberline {3.12}{\ignorespaces Exemple de segmentation osseuse. Le contour rose est trac\IeC {\'e} manuellement. Le contour bleu est calcul\IeC {\'e} par l'algorithme it\IeC {\'e}ratif \cite  {seuillageExemple1}.\relax }}{15}{figure.3.12}}
\@writefile{lof}{\contentsline {figure}{\numberline {3.13}{\ignorespaces Exemple d'images segment\IeC {\'e}es puis reconstruites en 3 dimensions \cite  {seuillageExemple1}.\relax }}{15}{figure.3.13}}
\@writefile{lof}{\contentsline {figure}{\numberline {3.14}{\ignorespaces Segmentation du tissus trab\IeC {\'e}culaire osseux par l'utilisation de quatre seuils diff\IeC {\'e}rents. Chaque seuil modifie l'\IeC {\'e}paisseur des trab\IeC {\'e}cules \cite  {seuillageExemple2}.\relax }}{15}{figure.3.14}}
\citation{fractal-analysis-texture}
\citation{fractal-analysis-texture}
\citation{fractal-brownien-texture}
\citation{features-texture}
\citation{hist-coocc-texture-hopfield}
\citation{hist-coocc-texture-hopfield}
\citation{hist-coocc-texture-hopfield}
\@writefile{toc}{\contentsline {chapter}{\numberline {4}Analyse de texture}{16}{chapter.4}}
\@writefile{lof}{\addvspace {10\p@ }}
\@writefile{lot}{\addvspace {10\p@ }}
\newlabel{texture}{{4}{16}{Analyse de texture}{chapter.4}{}}
\@writefile{toc}{\contentsline {section}{\numberline {I}Analyse structurelle}{16}{section.4.1}}
\@writefile{toc}{\contentsline {paragraph}{Box-counting}{16}{section.4.1}}
\@writefile{toc}{\contentsline {paragraph}{Mouvement Brownien}{16}{section.4.1}}
\@writefile{toc}{\contentsline {section}{\numberline {II}Analyse statistique}{16}{section.4.2}}
\@writefile{toc}{\contentsline {paragraph}{Classificaiton statistique}{16}{section.4.2}}
\@writefile{lof}{\contentsline {figure}{\numberline {4.1}{\ignorespaces Division des blocs en sous-blocs et en sous-sous-blocs \cite  {hist-coocc-texture-hopfield}.\relax }}{16}{figure.4.1}}
\citation{fourrier-phase-texture}
\citation{fourrier-histo-texture}
\citation{wavelette-texture}
\citation{gabor1-texture}
\citation{gabor2-texture}
\citation{gabor3-texture}
\citation{textureExemple1}
\citation{fractalDimentionExample}
\citation{fractalDimentionExample}
\citation{fractalDimentionExample}
\citation{fractalDimentionExample}
\@writefile{toc}{\contentsline {paragraph}{Classification spectrale}{17}{figure.4.1}}
\@writefile{toc}{\contentsline {paragraph}{Fourrier - segmentation}{17}{figure.4.1}}
\@writefile{toc}{\contentsline {paragraph}{Wavelette - segmentation}{17}{figure.4.1}}
\@writefile{toc}{\contentsline {paragraph}{Gabor - segmentation}{17}{figure.4.1}}
\@writefile{toc}{\contentsline {section}{\numberline {III}Exemples d'applications : Classification des carcinomes pulmonaires}{17}{section.4.3}}
\newlabel{cancerExemple}{{III}{17}{Exemples d'applications : Classification des carcinomes pulmonaires}{section.4.3}{}}
\@writefile{lof}{\contentsline {figure}{\numberline {4.2}{\ignorespaces Donn\IeC {\'e}es caract\IeC {\'e}ristiques utilis\IeC {\'e}es par les vecteurs de classification \cite  {fractalDimentionExample}.\relax }}{17}{figure.4.2}}
\@writefile{lof}{\contentsline {figure}{\numberline {4.3}{\ignorespaces R\IeC {\'e}sultat de la classification. En rouge, la classification par classifier automatique, en vert la classification manuelle \cite  {fractalDimentionExample}.\relax }}{17}{figure.4.3}}
\citation{splitmerge1}
\citation{splitmerge2}
\citation{ArbreQuaternaire_IMG}
\citation{ArbreQuaternaire_IMG}
\citation{graphAdjacence_IMG}
\citation{graphAdjacence_IMG}
\citation{regiongrowing}
\citation{regionGrowing_IMG}
\citation{regionGrowing_IMG}
\citation{regionExemple1}
\citation{regionExemple1}
\@writefile{toc}{\contentsline {chapter}{\numberline {5}Analyse r\IeC {\'e}gionale}{18}{chapter.5}}
\@writefile{lof}{\addvspace {10\p@ }}
\@writefile{lot}{\addvspace {10\p@ }}
\newlabel{region}{{5}{18}{Analyse régionale}{chapter.5}{}}
\@writefile{toc}{\contentsline {section}{\numberline {I}Split and merge}{18}{section.5.1}}
\@writefile{lof}{\contentsline {figure}{\numberline {5.1}{\ignorespaces Division d'une image en blocs et repr\IeC {\'e}sentation par arbre quaternaire \cite  {ArbreQuaternaire_IMG}.\relax }}{18}{figure.5.1}}
\@writefile{lof}{\contentsline {figure}{\numberline {5.2}{\ignorespaces Repr\IeC {\'e}sentation des blocs d'une image par un graphe d'adjacence \cite  {graphAdjacence_IMG}.\relax }}{18}{figure.5.2}}
\@writefile{toc}{\contentsline {section}{\numberline {II}Region growing}{18}{section.5.2}}
\@writefile{lof}{\contentsline {figure}{\numberline {5.3}{\ignorespaces Repr\IeC {\'e}sentation graphique du fonctionnement de l'algorithme region growig \cite  {regionGrowing_IMG}.\relax }}{18}{figure.5.3}}
\@writefile{toc}{\contentsline {section}{\numberline {III}Exemples d'applications : Segmentation des cavit\IeC {\'e}s cardiaques}{18}{section.5.3}}
\newlabel{coeurExemple}{{III}{18}{Exemples d'applications : Segmentation des cavités cardiaques}{section.5.3}{}}
\citation{regionExemple1}
\citation{regionExemple1}
\citation{regionExemple1}
\newlabel{flecheRegionGrowing}{{III}{19}{Exemples d'applications : Segmentation des cavités cardiaques}{section.5.3}{}}
\@writefile{lof}{\contentsline {figure}{\numberline {5.4}{\ignorespaces Image d'exemple utilis\IeC {\'e}e pour l'interaction initiale n\IeC {\'e}cessaire \IeC {\`a} l'ex\IeC {\'e}cution de l'algorithme region growing. Le centre du croisement est l'emplacement de cet interaction \cite  {regionExemple1}.\relax }}{19}{figure.5.4}}
\@writefile{lof}{\contentsline {figure}{\numberline {5.5}{\ignorespaces Endoscopie virtuelle de l'entr\IeC {\'e}e du sinus coronaire calcul\IeC {\'e} gr\IeC {\^a}ce \IeC {\`a} l'algorithme r\IeC {\'e}gion growing. Le sens et la direction de la visualisation sont repr\IeC {\'e}sent\IeC {\'e}s par une fl\IeC {\`e}che sur l'image pr\IeC {\'e}c\IeC {\'e}dente [\ref  {flecheRegionGrowing}] \cite  {regionExemple1}.\relax }}{19}{figure.5.5}}
\citation{atlasBasedConstruction}
\citation{atlasSimpleUse}
\citation{atlasExemples_IMG}
\citation{atlasExemples_IMG}
\citation{atlasSimpleUse}
\citation{atlasProbaUse}
\citation{atlasExemple1}
\citation{atlasExemple1}
\citation{atlasExemple1}
\citation{atlasExemple1}
\citation{atlasExemple1}
\citation{atlasExemple1}
\citation{atlasExemple1}
\citation{atlasExemple2}
\@writefile{toc}{\contentsline {chapter}{\numberline {6}Atlas-Based}{20}{chapter.6}}
\@writefile{lof}{\addvspace {10\p@ }}
\@writefile{lot}{\addvspace {10\p@ }}
\newlabel{atlas}{{6}{20}{Atlas-Based}{chapter.6}{}}
\@writefile{toc}{\contentsline {section}{\numberline {I}Simples}{20}{section.6.1}}
\@writefile{lof}{\contentsline {figure}{\numberline {6.1}{\ignorespaces Atlas simples du cortex c\IeC {\'e}r\IeC {\'e}brale \cite  {atlasExemples_IMG}.\relax }}{20}{figure.6.1}}
\@writefile{toc}{\contentsline {section}{\numberline {II}Statistiques}{20}{section.6.2}}
\@writefile{toc}{\contentsline {section}{\numberline {III}Exemples d'applications : Segmentation c\IeC {\'e}r\IeC {\'e}brale et cardiaque}{20}{section.6.3}}
\newlabel{coeurCerveauExemple}{{III}{20}{Exemples d'applications : Segmentation cérébrale et cardiaque}{section.6.3}{}}
\@writefile{lof}{\contentsline {figure}{\numberline {6.2}{\ignorespaces Image originale \IeC {\`a} segmenter \cite  {atlasExemple1}.\relax }}{20}{figure.6.2}}
\@writefile{lof}{\contentsline {figure}{\numberline {6.3}{\ignorespaces Atlas topologique utilis\IeC {\'e} et quelque r\IeC {\'e}sultats de segmentation \cite  {atlasExemple1}.\relax }}{20}{figure.6.3}}
\@writefile{lof}{\contentsline {figure}{\numberline {6.4}{\ignorespaces Reconstruction \IeC {\`a} 3 dimensions des r\IeC {\'e}sultats de segmentation \cite  {atlasExemple1}.\relax }}{20}{figure.6.4}}
\citation{atlasExemple2}
\citation{atlasExemple2}
\citation{atlasExemple2}
\citation{atlasExemple2}
\citation{atlasExemple2}
\citation{atlasExemple2}
\@writefile{lof}{\contentsline {figure}{\numberline {6.5}{\ignorespaces Atlas statistique de la fin de la diastole \cite  {atlasExemple2}.\relax }}{21}{figure.6.5}}
\@writefile{lof}{\contentsline {figure}{\numberline {6.6}{\ignorespaces Calcule de la transformation math\IeC {\'e}matique permettant de passer de la fin de la diastole, \IeC {\`a} l'instant $N$ du cycle cardiaque \cite  {atlasExemple2}.\relax }}{21}{figure.6.6}}
\@writefile{lof}{\contentsline {figure}{\numberline {6.7}{\ignorespaces Cr\IeC {\'e}ation d'un atlas personnel de fin de diastole, gr\IeC {\^a}ce \IeC {\`a} l'utilisation de l'ensemble des images du cycle cardiaque \cite  {atlasExemple2}.\relax }}{21}{figure.6.7}}
\citation{ABC1-seuil}
\citation{ABC1-seuil}
\citation{ABC1-seuil}
\citation{FCMABC-seuil}
\citation{anealing-texture}
\citation{perceptron}
\citation{hist-coocc-texture-hopfield}
\citation{hist-coocc-texture-hopfield}
\@writefile{toc}{\contentsline {chapter}{\numberline {7}M\IeC {\'e}taheuristiques et optimisations}{22}{chapter.7}}
\@writefile{lof}{\addvspace {10\p@ }}
\@writefile{lot}{\addvspace {10\p@ }}
\newlabel{optimisation}{{7}{22}{Métaheuristiques et optimisations}{chapter.7}{}}
\@writefile{toc}{\contentsline {section}{\numberline {I}Cooccurrence - Gradient}{22}{section.7.1}}
\@writefile{lof}{\contentsline {figure}{\numberline {7.1}{\ignorespaces Matrice de cooccurrence\cite  {ABC1-seuil}.\relax }}{22}{figure.7.1}}
\@writefile{toc}{\contentsline {section}{\numberline {II}Relaxation Stochastique}{22}{section.7.2}}
\@writefile{toc}{\contentsline {section}{\numberline {III}Perceptron}{22}{section.7.3}}
\@writefile{toc}{\contentsline {section}{\numberline {IV}Hopfield}{22}{section.7.4}}
\citation{hist-coocc-texture-hopfield}
\citation{hist-coocc-texture-hopfield}
\citation{hist-coocc-texture-hopfield}
\citation{hist-coocc-texture-hopfield}
\citation{hist-coocc-texture-hopfield}
\citation{kohonenUse}
\citation{kohonenUse}
\citation{kohonenUse}
\citation{kohonenUse}
\citation{kohonenUse}
\citation{kohonenUse}
\citation{kohonenUse}
\citation{kohonenUse}
\citation{kohonenUse2}
\@writefile{lof}{\contentsline {figure}{\numberline {7.2}{\ignorespaces Segmentation d'images \IeC {\`a} l'aide d'un r\IeC {\'e}seau de Hopfield. Chaque ligne poss\IeC {\`e}de une seule valeur 1 et le reste des valeurs sont des 0 \cite  {hist-coocc-texture-hopfield}.\relax }}{23}{figure.7.2}}
\@writefile{lof}{\contentsline {figure}{\numberline {7.3}{\ignorespaces Image d'exemple pr\IeC {\'e}-segmentation \cite  {hist-coocc-texture-hopfield}.\relax }}{23}{figure.7.3}}
\@writefile{lof}{\contentsline {figure}{\numberline {7.4}{\ignorespaces Image segment\IeC {\'e}e \IeC {\`a} l'aide d'un r\IeC {\'e}seau de Hopfield \cite  {hist-coocc-texture-hopfield}.\relax }}{23}{figure.7.4}}
\@writefile{toc}{\contentsline {section}{\numberline {V}Kohonen}{23}{section.7.5}}
\@writefile{lof}{\contentsline {figure}{\numberline {7.5}{\ignorespaces (\IeC {\`a} gauche) Image originale affich\IeC {\'e}e en 3 dimensions. (\IeC {\`a} droite) Image r\IeC {\'e}sultante d'un cueillage de l'image originale \cite  {kohonenUse}.\relax }}{23}{figure.7.5}}
\@writefile{lof}{\contentsline {figure}{\numberline {7.6}{\ignorespaces Segmentation des contours de l'image seuill\IeC {\'e}e gr\IeC {\^a}ce \IeC {\`a} un r\IeC {\'e}seau de Kohonen circulaire \cite  {kohonenUse}.\relax }}{23}{figure.7.6}}
\@writefile{lof}{\contentsline {figure}{\numberline {7.7}{\ignorespaces Mapping de l'image originale gr\IeC {\^a}ce \IeC {\`a} un r\IeC {\'e}seau de Kohonen sous forme de grille \cite  {kohonenUse}.\relax }}{23}{figure.7.7}}
\@writefile{toc}{\contentsline {chapter}{\numberline {8}Conclusions}{24}{chapter.8}}
\@writefile{lof}{\addvspace {10\p@ }}
\@writefile{lot}{\addvspace {10\p@ }}
\bibstyle{plain}
\bibdata{science}
\bibcite{fisher-histo-seuil}{{1}{}{{}}{{}}}
\bibcite{metaoptimisation-seuil}{{2}{}{{}}{{}}}
\bibcite{ptile-seuil}{{3}{}{{}}{{}}}
\bibcite{atlasProbaUse}{{4}{}{{}}{{}}}
\bibcite{FisherLinear_IMG}{{5}{}{{}}{{}}}
\bibcite{atlasExemple1}{{6}{}{{}}{{}}}
\bibcite{bloc-fixed-seuil}{{7}{}{{}}{{}}}
\bibcite{perceptron}{{8}{}{{}}{{}}}
\bibcite{gris-local-seuil}{{9}{}{{}}{{}}}
\bibcite{relaxation2-seuil}{{10}{}{{}}{{}}}
\bibcite{courbature-seuil}{{11}{}{{}}{{}}}
\bibcite{entropy-histo-seuil}{{12}{}{{}}{{}}}
\bibcite{entropy-flou2-seuil}{{13}{}{{}}{{}}}
\bibcite{entropy2-histo-seuil}{{14}{}{{}}{{}}}
\bibcite{histo-gauss-seuil}{{15}{}{{}}{{}}}
\bibcite{ArbreQuaternaire_IMG}{{16}{}{{}}{{}}}
\bibcite{atlasExemples_IMG}{{17}{}{{}}{{}}}
\bibcite{kohonenUse2}{{18}{}{{}}{{}}}
\bibcite{regionExemple1}{{19}{}{{}}{{}}}
\bibcite{moment-seuil}{{20}{}{{}}{{}}}
\bibcite{graphAdjacence_IMG}{{21}{}{{}}{{}}}
\bibcite{hopfieldTheorie}{{22}{}{{}}{{}}}
\bibcite{fractal-dim-texture}{{23}{}{{}}{{}}}
\bibcite{randomSet-seuil}{{24}{}{{}}{{}}}
\bibcite{neural2}{{25}{}{{}}{{}}}
\bibcite{gabor2-texture}{{26}{}{{}}{{}}}
\bibcite{features-texture}{{27}{}{{}}{{}}}
\@writefile{toc}{\contentsline {chapter}{Bibliographie}{25}{chapter.8}}
\bibcite{wavelette-texture}{{28}{}{{}}{{}}}
\bibcite{regiongrowing}{{29}{}{{}}{{}}}
\bibcite{otsu-modif-seuil}{{30}{}{{}}{{}}}
\bibcite{SMVTheory_IMG}{{31}{}{{}}{{}}}
\bibcite{splitmerge1}{{32}{}{{}}{{}}}
\bibcite{fuzzyC-seuil}{{33}{}{{}}{{}}}
\bibcite{waveletteExemple}{{34}{}{{}}{{}}}
\bibcite{anealing-texture}{{35}{}{{}}{{}}}
\bibcite{otsu-kittler-seuil}{{36}{}{{}}{{}}}
\bibcite{hist-coocc-texture-hopfield}{{37}{}{{}}{{}}}
\bibcite{lee}{{38}{}{{}}{{}}}
\bibcite{similarite-incertitude-seuil}{{39}{}{{}}{{}}}
\bibcite{fractal-analysis-texture}{{40}{}{{}}{{}}}
\bibcite{atlasExemple2}{{41}{}{{}}{{}}}
\bibcite{ABC1-seuil}{{42}{}{{}}{{}}}
\bibcite{textureExemple1}{{43}{}{{}}{{}}}
\bibcite{regionGrowing_IMG}{{44}{}{{}}{{}}}
\bibcite{gaborExemple}{{45}{}{{}}{{}}}
\bibcite{KohonenTherory_IMG}{{46}{}{{}}{{}}}
\bibcite{FCMABC-seuil}{{47}{}{{}}{{}}}
\bibcite{cooccurrence-seuil}{{48}{}{{}}{{}}}
\bibcite{seuil-surf}{{49}{}{{}}{{}}}
\bibcite{reseauNeurone_IMG}{{50}{}{{}}{{}}}
\bibcite{otsu-seuil}{{51}{}{{}}{{}}}
\bibcite{compactness-seuil}{{52}{}{{}}{{}}}
\bibcite{fourrier-phase-texture}{{53}{}{{}}{{}}}
\bibcite{fractal-brownien-texture}{{54}{}{{}}{{}}}
\bibcite{fractalDimentionExample}{{55}{}{{}}{{}}}
\bibcite{pun-entropy-seuil}{{56}{}{{}}{{}}}
\bibcite{bimodalHisto_IMG}{{57}{}{{}}{{}}}
\bibcite{kohonenUse}{{58}{}{{}}{{}}}
\bibcite{iterative-clustering-seuil}{{59}{}{{}}{{}}}
\bibcite{cocavite-seuil}{{60}{}{{}}{{}}}
\bibcite{survey-seuil-Masson}{{61}{}{{}}{{}}}
\bibcite{valle-seuil}{{62}{}{{}}{{}}}
\bibcite{survey-seuil-tot}{{63}{}{{}}{{}}}
\bibcite{atlasBasedConstruction}{{64}{}{{}}{{}}}
\bibcite{gabor3-texture}{{65}{}{{}}{{}}}
\bibcite{relaxation-seuil}{{66}{}{{}}{{}}}
\bibcite{splitmerge2}{{67}{}{{}}{{}}}
\bibcite{kohonenTheory}{{68}{}{{}}{{}}}
\bibcite{contours-seuil}{{69}{}{{}}{{}}}
\bibcite{atlasSimpleUse}{{70}{}{{}}{{}}}
\bibcite{fuzzyC-survey-seuil}{{71}{}{{}}{{}}}
\bibcite{surface-seuil}{{72}{}{{}}{{}}}
\bibcite{yen-entropy-seuil}{{73}{}{{}}{{}}}
\bibcite{entropy-flou1-seuil}{{74}{}{{}}{{}}}
\bibcite{seuillageExemple1}{{75}{}{{}}{{}}}
\bibcite{seuillageExemple2}{{76}{}{{}}{{}}}
\bibcite{gabor1-texture}{{77}{}{{}}{{}}}
\bibcite{fourrier-histo-texture}{{78}{}{{}}{{}}}
\providecommand\NAT@force@numbers{}\NAT@force@numbers
